EDA notebook 2Aug22
…
Run the code chunk below to import the required libraries

Data preprocessing

@Hollie: If we don’t include this section, then we can preprocess and save the csv file for later use. Explanation of the columns/data can be found here: https://www.oasis-brains.org/files/oasis_cross-sectional_facts.pdf

@Andrew: I would prefer to preprocess and save somehwere, this is just another part that could go wrong

Exploring the data

The first thing we should do is to quickly explore the data. Run the code below to see the data that you’ve been provided. How many columns (features) and how many rows are there in your dataset? Do any features appear to be categorical? Continuous?

data_clean

# A tibble: 216 x 9
   male_or_female CDR          Educ   SES   Age  MMSE  eTIV  nWBV   ASF
   <chr>          <chr>       <dbl> <dbl> <dbl> <dbl> <dbl> <dbl> <dbl>
 1 Female         Nondemented     2     3    74    29  1344 0.743  1.31
 2 Female         Nondemented     4     1    55    29  1147 0.81   1.53
 3 Female         Very mild       4     3    73    27  1454 0.708  1.21
 4 Male           Nondemented     5     2    74    30  1636 0.689  1.07
 5 Female         Nondemented     3     2    52    30  1321 0.827  1.33
 6 Female         Nondemented     5     2    81    30  1664 0.679  1.06
 7 Male           Very mild       2     4    82    27  1477 0.739  1.19
 8 Male           Nondemented     3     4    39    28  1636 0.813  1.07
 9 Female         Nondemented     5     1    89    30  1536 0.715  1.14
10 Female         Nondemented     5     2    48    29  1326 0.785  1.32
# ... with 206 more rows
…
